LME Models in Longitudinal Treatment Data
…
Clean Data

#Remove non-interest variables
Less <-LexDropMaster [-c(1,3,4,5,7,16,18,19,20,22,23,31)]
####Group by Patient, Timepoint, and Condition####
RearrangeLess <- Less %>% 
  group_by(Patient, TimePoint, Condition) %>% 
  summarize_at(vars(c(1:12)),mean, na.rm=TRUE) ## "na.rm=TRUE" skips over NAs in variable
####Remove T5
RearrangeLess<-subset(RearrangeLess,  TimePoint!="T5")
RearrangeLess

## # A tibble: 65 x 15
## # Groups:   Patient, TimePoint [37]
##    Patient TimePoint Condition   BNT PPTpics PPTwords  MoCA DigitsF DigitsB
##    <chr>   <chr>     <chr>     <dbl>   <dbl>    <dbl> <dbl>   <dbl>   <dbl>
##  1 S04     T1        control       2      30       14    14       7       5
##  2 S04     T1        train         2      30       14    14       7       5
##  3 S04     T2        control       2      16      NaN    13       6       5
##  4 S04     T2        train         2      16      NaN    13       6       5
##  5 S04     T3        control       1      15       17     9       5       6
##  6 S04     T3        train         1      15       17     9       5       6
##  7 S04     T4        control       1      13       10     5       6       5
##  8 S04     T4        train         1      13       10     5       6       5
##  9 S05     T1        control      11      26       26    15       5       6
## 10 S05     T2        control      12      25       25    16       7       4
## #  with 55 more rows, and 6 more variables: TrailATime <dbl>,
## #   TrailBTime <dbl>, Acc <dbl>, FixationCount <dbl>,
## #   FixationDurationTotal <dbl>, FixationDispersionTotal <dbl>
…
